^C:\USERS\SEANK\SOURCE\REPOS\SW3-GDSTRUC\SW3-GDSTRUC\GUILDMEMBER.CPP|C:\USERS\SEANK\SOURCE\REPOS\SW3-GDSTRUC\SW3-GDSTRUC\SW3-GDSTRUC.CPP
C:\USERS\SEANK\SOURCE\REPOS\SW3-GDSTRUC\SW3-GDSTRUC\DEBUG\VC142.PDB
C:\USERS\SEANK\SOURCE\REPOS\SW3-GDSTRUC\SW3-GDSTRUC\DEBUG\VC142.IDB
C:\USERS\SEANK\SOURCE\REPOS\SW3-GDSTRUC\SW3-GDSTRUC\DEBUG\SW3-GDSTRUC.OBJ
C:\USERS\SEANK\SOURCE\REPOS\SW3-GDSTRUC\SW3-GDSTRUC\DEBUG\GUILDMEMBER.OBJ
^C:\USERS\SEANK\SOURCE\REPOS\SW3-GDSTRUC\SW3-GDSTRUC\GUILD.CPP|C:\USERS\SEANK\SOURCE\REPOS\SW3-GDSTRUC\SW3-GDSTRUC\GUILDMEMBER.CPP|C:\USERS\SEANK\SOURCE\REPOS\SW3-GDSTRUC\SW3-GDSTRUC\SW3-GDSTRUC.CPP
C:\USERS\SEANK\SOURCE\REPOS\SW3-GDSTRUC\SW3-GDSTRUC\DEBUG\VC142.PDB
C:\USERS\SEANK\SOURCE\REPOS\SW3-GDSTRUC\SW3-GDSTRUC\DEBUG\VC142.IDB
C:\USERS\SEANK\SOURCE\REPOS\SW3-GDSTRUC\SW3-GDSTRUC\DEBUG\SW3-GDSTRUC.OBJ
C:\USERS\SEANK\SOURCE\REPOS\SW3-GDSTRUC\SW3-GDSTRUC\DEBUG\GUILDMEMBER.OBJ
C:\USERS\SEANK\SOURCE\REPOS\SW3-GDSTRUC\SW3-GDSTRUC\DEBUG\GUILD.OBJ
^C:\USERS\SEANK\SOURCE\REPOS\SW3-GDSTRUC\SW3-GDSTRUC\GUILDMEMBER.CPP
C:\USERS\SEANK\SOURCE\REPOS\SW3-GDSTRUC\SW3-GDSTRUC\DEBUG\VC142.PDB
^C:\USERS\SEANK\SOURCE\REPOS\SW3-GDSTRUC\SW3-GDSTRUC\GUILD.CPP|C:\USERS\SEANK\SOURCE\REPOS\SW3-GDSTRUC\SW3-GDSTRUC\SW3-GDSTRUC.CPP
C:\USERS\SEANK\SOURCE\REPOS\SW3-GDSTRUC\SW3-GDSTRUC\DEBUG\VC142.PDB
C:\USERS\SEANK\SOURCE\REPOS\SW3-GDSTRUC\SW3-GDSTRUC\DEBUG\VC142.IDB
C:\USERS\SEANK\SOURCE\REPOS\SW3-GDSTRUC\SW3-GDSTRUC\DEBUG\SW3-GDSTRUC.OBJ
^C:\USERS\SEANK\SOURCE\REPOS\SW3-GDSTRUC\SW3-GDSTRUC\SW3-GDSTRUC.CPP
C:\USERS\SEANK\SOURCE\REPOS\SW3-GDSTRUC\SW3-GDSTRUC\DEBUG\VC142.PDB
C:\USERS\SEANK\SOURCE\REPOS\SW3-GDSTRUC\SW3-GDSTRUC\DEBUG\VC142.IDB
C:\USERS\SEANK\SOURCE\REPOS\SW3-GDSTRUC\SW3-GDSTRUC\DEBUG\SW3-GDSTRUC.OBJ
