^C:\USERS\SEANK\SOURCE\REPOS\UNORDEREDARRAY-GDSTRUC\UNORDEREDARRAY-GDSTRUC\DEBUG\UNORDEREDARRAY-GDSTRUC.OBJ|C:\USERS\SEANK\SOURCE\REPOS\UNORDEREDARRAY-GDSTRUC\UNORDEREDARRAY-GDSTRUC\DEBUG\UNORDEREDARRAY.OBJ
C:\USERS\SEANK\SOURCE\REPOS\UNORDEREDARRAY-GDSTRUC\DEBUG\UNORDEREDARRAY-GDSTRUC.EXE
C:\USERS\SEANK\SOURCE\REPOS\UNORDEREDARRAY-GDSTRUC\DEBUG\UNORDEREDARRAY-GDSTRUC.ILK
C:\USERS\SEANK\SOURCE\REPOS\UNORDEREDARRAY-GDSTRUC\DEBUG\UNORDEREDARRAY-GDSTRUC.PDB
